%YAML 1.1
%TAG !u! tag:unity3d.com,2011:
--- !u!114 &11400000
MonoBehaviour:
  m_ObjectHideFlags: 0
  m_PrefabParentObject: {fileID: 0}
  m_PrefabInternal: {fileID: 0}
  m_GameObject: {fileID: 0}
  m_Enabled: 1
  m_EditorHideFlags: 0
  m_Script: {fileID: 11500000, guid: 7a59590baa6e24e5c9c0cedca97aad9e, type: 3}
  m_Name: YellowAlien
  m_EditorClassIdentifier: 
  Swim1: {fileID: 21300000, guid: 72c5a47dbd63e408280f462be913c9ea, type: 3}
  Swim2: {fileID: 21300000, guid: 6405eb6c47b2e4517aa7c72f54f60494, type: 3}
