%YAML 1.1
%TAG !u! tag:unity3d.com,2011:
--- !u!114 &11400000
MonoBehaviour:
  m_ObjectHideFlags: 0
  m_PrefabParentObject: {fileID: 0}
  m_PrefabInternal: {fileID: 0}
  m_GameObject: {fileID: 0}
  m_Enabled: 1
  m_EditorHideFlags: 0
  m_Script: {fileID: 11500000, guid: c4e2b8451f3f54560973025fb764af5b, type: 3}
  m_Name: MossyChest
  m_EditorClassIdentifier: 
  ItemOnAnchorSprite: {fileID: 21300284, guid: d9c635427f803425ea9a26fe8d9ac18a, type: 3}
  Score: 15
  ScoreAudio: {fileID: 8300000, guid: 446ae28f42dc4447bb299c5a7b61c45e, type: 3}
  ClipDuration: 0.2
  MultipleCount: 1
  ScoreMultiple: 5
